{
  "current_page": 1,
  "first_page_url": "https://covid-api.com/api/regions?per_page=20&page=1",
  "last_page_url": "https://covid-api.com/api/regions?per_page=20&page=51",
  "next_page_url": "https://covid-api.com/api/regions?per_page=20&page=2",
  "prev_page_url": null,
  "per_page": "20",
  "last_page": 51,
  "from": 1,
  "path": "https://covid-api.com/api/regions",
  "to": 20,
  "total": 1002,
  "data": [
    {
      "iso": "CHN",
      "name": "China"
    },
    {
      "iso": "TWN",
      "name": "Taipei and environs"
    },
    {
      "iso": "USA",
      "name": "US"
    },
    {
      "iso": "JPN",
      "name": "Japan"
    },
    {
      "iso": "THA",
      "name": "Thailand"
    },
    {
      "iso": "KOR",
      "name": "Korea, South"
    },
    {
      "iso": "SGP",
      "name": "Singapore"
    },
    {
      "iso": "PHL",
      "name": "Philippines"
    },
    {
      "iso": "MYS",
      "name": "Malaysia"
    },
    {
      "iso": "VNM",
      "name": "Vietnam"
    },
    {
      "iso": "AUS",
      "name": "Australia"
    },
    {
      "iso": "MEX",
      "name": "Mexico"
    },
    {
      "iso": "BRA",
      "name": "Brazil"
    },
    {
      "iso": "COL",
      "name": "Colombia"
    },
    {
      "iso": "FRA",
      "name": "France"
    },
    {
      "iso": "NPL",
      "name": "Nepal"
    },
    {
      "iso": "CAN",
      "name": "Canada"
    },
    {
      "iso": "KHM",
      "name": "Cambodia"
    },
    {
      "iso": "LKA",
      "name": "Sri Lanka"
    },
    {
      "iso": "CIV",
      "name": "Cote d'Ivoire"
    }
  ]
}
